previous year/2ndYear/sem4/cos/flip Flop/counter code/out.vcd
$date
	Sun Feb 25 11:31:44 2024
$end
$version
	Icarus Verilog
$end
$timescale
	1s
$end
$scope module tb_model_counter $end
$var wire 8 ! counter [7:0] $end
$var reg 1 " clk $end
$var reg 1 # mode $end
$var reg 1 $ reset $end
$scope module c1 $end
$var wire 1 " clk $end
$var wire 1 # mode $end
$var wire 1 $ reset $end
$var wire 7 % xr1 [6:0] $end
$var wire 8 & t [7:0] $end
$var wire 8 ' q_b [7:0] $end
$var wire 8 ( counter [7:0] $end
$var wire 7 ) ad2 [6:0] $end
$var wire 7 * ad1 [6:0] $end
$scope begin genblk1[1] $end
$scope begin genblk2 $end
$upscope $end
$scope module t1 $end
$var wire 1 + b_q $end
$var wire 1 " clk $end
$var wire 1 $ rst $end
$var wire 1 , t $end
$var reg 1 - q $end
$upscope $end
$upscope $end
$scope begin genblk1[2] $end
$scope begin genblk3 $end
$upscope $end
$scope module t1 $end
$var wire 1 . b_q $end
$var wire 1 " clk $end
$var wire 1 $ rst $end
$var wire 1 / t $end
$var reg 1 0 q $end
$upscope $end
$upscope $end
$scope begin genblk1[3] $end
$scope begin genblk3 $end
$upscope $end
$scope module t1 $end
$var wire 1 1 b_q $end
$var wire 1 " clk $end
$var wire 1 $ rst $end
$var wire 1 2 t $end
$var reg 1 3 q $end
$upscope $end
$upscope $end
$scope begin genblk1[4] $end
$scope begin genblk3 $end
$upscope $end
$scope module t1 $end
$var wire 1 4 b_q $end
$var wire 1 " clk $end
$var wire 1 $ rst $end
$var wire 1 5 t $end
$var reg 1 6 q $end
$upscope $end
$upscope $end
$scope begin genblk1[5] $end
$scope begin genblk3 $end
$upscope $end
$scope module t1 $end
$var wire 1 7 b_q $end
$var wire 1 " clk $end
$var wire 1 $ rst $end
$var wire 1 8 t $end
$var reg 1 9 q $end
$upscope $end
$upscope $end
$scope begin genblk1[6] $end
$scope begin genblk3 $end
$upscope $end
$scope module t1 $end
$var wire 1 : b_q $end
$var wire 1 " clk $end
$var wire 1 $ rst $end
$var wire 1 ; t $end
$var reg 1 < q $end
$upscope $end
$upscope $end
$scope begin genblk1[7] $end
$scope begin genblk3 $end
$upscope $end
$scope module t1 $end
$var wire 1 = b_q $end
$var wire 1 " clk $end
$var wire 1 $ rst $end
$var wire 1 > t $end
$var reg 1 ? q $end
$upscope $end
$upscope $end
$scope module t1 $end
$var wire 1 @ b_q $end
$var wire 1 " clk $end
$var wire 1 $ rst $end
$var wire 1 A t $end
$var reg 1 B q $end
$upscope $end
$upscope $end
$upscope $end
$enddefinitions $end
#0
$dumpvars
0B
1A
1@
0?
0>
1=
0<
0;
1:
09
08
17
06
05
14
03
02
11
00
0/
1.
0-
0,
1+
b0 *
b0 )
b0 (
b11111111 '
bz1 &
b0 %
1$
0#
1"
b0 !
$end
#1
0"
#2
1,
b1 %
b1 *
b11111110 '
0@
b1 !
b1 (
1B
1"
0$
#3
0"
#4
0/
0,
b0 %
b0 *
0+
b11111101 '
1@
1-
b10 !
b10 (
0B
1"
#5
0"
#6
1/
1,
b11 %
b11 *
b11111100 '
0@
b11 !
b11 (
1B
1"
#7
0"
#8
0/
02
0,
b0 %
b0 *
1+
0.
b11111011 '
1@
0-
10
b100 !
b100 (
0B
1"
#9
0"
#10
1,
b1 %
b1 *
b11111010 '
0@
b101 !
b101 (
1B
1"
#11
0"
#12
02
0/
0,
b0 %
b0 *
0+
b11111001 '
1@
1-
b110 !
b110 (
0B
1"
#13
0"
#14
12
1/
1,
b111 %
b111 *
b11111000 '
0@
b111 !
b111 (
1B
1"
#15
0"
#16
0/
02
05
0,
b0 %
b0 *
1+
1.
01
b11110111 '
1@
0-
00
13
b1000 !
b1000 (
0B
1"
#17
0"
#18
1,
b1 %
b1 *
b11110110 '
0@
b1001 !
b1001 (
1B
1"
#19
0"
#20
0/
0,
b0 %
b0 *
0+
b11110101 '
1@
1-
b1010 !
b1010 (
0B
1"
#21
0"
#22
1/
1,
b11 %
b11 *
b11110100 '
0@
b1011 !
b1011 (
1B
1"
#23
0"
#24
05
0/
02
0,
b0 %
b0 *
1+
0.
b11110011 '
1@
0-
10
b1100 !
b1100 (
0B
1"
#25
0"
#26
1,
b1 %
b1 *
b11110010 '
0@
b1101 !
b1101 (
1B
1"
#27
0"
#28
05
02
0/
0,
b0 %
b0 *
0+
b11110001 '
1@
1-
b1110 !
b1110 (
0B
1"
#29
0"
#30
15
12
1/
1,
b1111 %
b1111 *
b11110000 '
0@
b1111 !
b1111 (
1B
1"
#31
0"
#32
0/
02
05
08
0,
b0 %
b0 *
1+
1.
11
04
b11101111 '
1@
0-
00
03
16
b10000 !
b10000 (
0B
1"
#33
0"
#34
1,
b1 %
b1 *
b11101110 '
0@
b10001 !
b10001 (
1B
1"
#35
0"
#36
0/
0,
b0 %
b0 *
0+
b11101101 '
1@
1-
b10010 !
b10010 (
0B
1"
#37
0"
#38
1/
1,
b11 %
b11 *
b11101100 '
0@
b10011 !
b10011 (
1B
1"
#39
0"
#40
0/
02
0,
b0 %
b0 *
1+
0.
b11101011 '
1@
0-
10
b10100 !
b10100 (
0B
1"
#41
0"
#42
05
02
0@
1.
b11101100 '
0+
1B
00
b10011 !
b10011 (
1-
1"
0/
0,
b0 %
b0 )
1#
#43
0"
#44
1,
b1 %
b1 )
b11101101 '
1@
b10010 !
b10010 (
0B
1"
#45
0"
#46
05
02
0,
0/
b0 %
b0 )
0@
b11101110 '
1+
1B
b10001 !
b10001 (
0-
1"
#47
0"
#48
15
12
1/
1,
b1111 %
b1111 )
b11101111 '
1@
b10000 !
b10000 (
0B
1"
#49
0"
#50
0>
0;
0,
08
05
02
0/
b0 %
b0 )
0@
14
01
0.
b11110000 '
0+
1B
06
13
10
b1111 !
b1111 (
1-
1"
#51
0"
#52
1,
b1 %
b1 )
b11110001 '
1@
b1110 !
b1110 (
0B
1"
#53
0"
#54
0,
0/
b0 %
b0 )
0@
b11110010 '
1+
1B
b1101 !
b1101 (
0-
1"
#55
0"
#56
1/
1,
b11 %
b11 )
b11110011 '
1@
b1100 !
b1100 (
0B
1"
#57
0"
#58
0,
02
0/
b0 %
b0 )
0@
1.
b11110100 '
0+
1B
00
b1011 !
b1011 (
1-
1"
#59
0"
#60
1,
b1 %
b1 )
b11110101 '
1@
b1010 !
b1010 (
0B
1"
#61
0"
#62
02
0,
0/
b0 %
b0 )
0@
b11110110 '
1+
1B
b1001 !
b1001 (
0-
1"
#63
0"
#64
12
1/
1,
b111 %
b111 )
b11110111 '
1@
b1000 !
b1000 (
0B
1"
#65
0"
#66
0>
0;
08
0,
05
02
0/
b0 %
b0 )
0@
11
0.
b11111000 '
0+
1B
03
10
b111 !
b111 (
1-
1"
#67
0"
#68
1,
b1 %
b1 )
b11111001 '
1@
b110 !
b110 (
0B
1"
#69
0"
#70
0,
0/
b0 %
b0 )
0@
b11111010 '
1+
1B
b101 !
b101 (
0-
1"
#71
0"
#72
1/
1,
b11 %
b11 )
b11111011 '
1@
b100 !
b100 (
0B
1"
#73
0"
#74
0>
0;
08
05
0,
02
0/
b0 %
b0 )
0@
1.
b11111100 '
0+
1B
00
b11 !
b11 (
1-
1"
#75
0"
#76
1,
b1 %
b1 )
b11111101 '
1@
b10 !
b10 (
0B
1"
#77
0"
#78
0>
0;
08
05
02
0,
0/
b0 %
b0 )
0@
b11111110 '
1+
1B
b1 !
b1 (
0-
1"
#79
0"
#80
1>
1;
18
15
12
1/
1,
b1111111 %
b1111111 )
b11111111 '
1@
b0 !
b0 (
0B
1"
#81
0"
#82
0,
0>
0;
08
05
02
0/
b0 %
b0 )
0@
0=
0:
07
04
01
0.
b0 '
0+
1B
1?
1<
19
16
13
10
b11111111 !
b11111111 (
1-
1"
#83
0"
#84
1,
b1 %
b1 )
b1 '
1@
b11111110 !
b11111110 (
0B
1"
#85
0"
#86
0,
0/
b0 %
b0 )
0@
b10 '
1+
1B
b11111101 !
b11111101 (
0-
1"
#87
0"
#88
1/
1,
b11 %
b11 )
b11 '
1@
b11111100 !
b11111100 (
0B
1"
#89
0"
#90
0,
02
0/
b0 %
b0 )
0@
1.
b100 '
0+
1B
00
b11111011 !
b11111011 (
1-
1"
#91
0"
#92
1,
b1 %
b1 )
b101 '
1@
b11111010 !
b11111010 (
0B
1"
#93
0"
#94
02
0,
0/
b0 %
b0 )
0@
b110 '
1+
1B
b11111001 !
b11111001 (
0-
1"
#95
0"
#96
12
1/
1,
b111 %
b111 )
b111 '
1@
b11111000 !
b11111000 (
0B
1"
#97
0"
#98
0,
05
02
0/
b0 %
b0 )
0@
11
0.
b1000 '
0+
1B
03
10
b11110111 !
b11110111 (
1-
1"
#99
0"
#100
1,
b1 %
b1 )
b1001 '
1@
b11110110 !
b11110110 (
0B
1"
#101
0"
#102
0,
0/
b0 %
b0 )
0@
b1010 '
1+
1B
b11110101 !
b11110101 (
0-
1"
#103
0"
#104
1/
1,
b11 %
b11 )
b1011 '
1@
b11110100 !
b11110100 (
0B
1"
#105
0"
#106
05
0,
02
0/
b0 %
b0 )
0@
1.
b1100 '
0+
1B
00
b11110011 !
b11110011 (
1-
1"
#107
0"
#108
1,
b1 %
b1 )
b1101 '
1@
b11110010 !
b11110010 (
0B
1"
#109
0"
#110
05
02
0,
0/
b0 %
b0 )
0@
b1110 '
1+
1B
b11110001 !
b11110001 (
0-
1"
#111
0"
#112
15
12
1/
1,
b1111 %
b1111 )
b1111 '
1@
b11110000 !
b11110000 (
0B
1"
#113
0"
#114
0,
08
05
02
0/
b0 %
b0 )
0@
14
01
0.
b10000 '
0+
1B
06
13
10
b11101111 !
b11101111 (
1-
1"
#115
0"
#116
1,
b1 %
b1 )
b10001 '
1@
b11101110 !
b11101110 (
0B
1"
#117
0"
#118
0,
0/
b0 %
b0 )
0@
b10010 '
1+
1B
b11101101 !
b11101101 (
0-
1"
#119
0"
#120
1/
1,
b11 %
b11 )
b10011 '
1@
b11101100 !
b11101100 (
0B
1"
#121
0"
#122
0,
02
0/
b0 %
b0 )
0@
1.
b10100 '
0+
1B
00
b11101011 !
b11101011 (
1-
1"
